{
    "dark": [
        "#0f101a",
        "#0f101a"
    ],
    "grey": [
        "#353c4a",
        "#353c4a"
    ],
    "light": [
        "#f1ffff",
        "#f1ffff"
    ],
    "text": [
        "#FFFFFF",
        "#FFFFFF"
    ],
    "focus": [
        "#00a3a3",
        "#00a3a3"
    ],
    "active": [
        "#f1ffff",
        "#f1ffff"
    ],
    "inactive": [
        "#4c566a",
        "#4c566a"
    ],
    "urgent": [
        "#F07178",
        "#F07178"
    ],
    "color1": [
        "#000024",
        "#000024"
    ],
    "color2": [
        "#002400",
        "#002400"
    ],
    "color3": [
        "#242400",
        "#242400"
    ],
    "color4": [
        "#1f1f1f",
        "#1f1f1f"
    ]
}